<?xml version="1.0" standalone="no"?>
<!DOCTYPE svg PUBLIC "-//W3C//DTD SVG 20010904//EN"
 "http://www.w3.org/TR/2001/REC-SVG-20010904/DTD/svg10.dtd">
<svg version="1.0" xmlns="http://www.w3.org/2000/svg"
 width="700.000000pt" height="700.000000pt" viewBox="0 0 700.000000 700.000000"
 preserveAspectRatio="xMidYMid meet">
<metadata>
Created by potrace 1.14, written by Peter Selinger 2001-2017
</metadata>
<g transform="translate(0.000000,700.000000) scale(0.100000,-0.100000)"
fill="#000000" stroke="none">
<path d="M3280 6994 c-19 -2 -84 -9 -145 -14 -636 -62 -1267 -317 -1795 -726
-149 -115 -481 -446 -595 -594 -410 -532 -653 -1132 -727 -1795 -17 -155 -17
-575 0 -730 75 -673 332 -1300 748 -1820 114 -143 339 -372 484 -494 537 -451
1163 -717 1885 -803 142 -17 586 -17 730 0 688 80 1296 330 1820 748 142 114
371 338 494 484 450 536 717 1163 803 1885 17 144 17 586 0 730 -86 723 -351
1347 -803 1885 -126 151 -375 392 -519 504 -518 403 -1094 640 -1750 722 -117
15 -552 27 -630 18z m-545 -636 c-68 -48 -225 -218 -280 -301 -322 -495 -211
-1134 250 -1442 160 -107 320 -151 515 -142 174 8 304 55 431 157 155 124 236
276 246 460 9 156 -33 275 -133 380 -116 121 -278 159 -407 94 -113 -57 -153
-189 -78 -256 17 -15 43 -28 57 -28 39 0 80 -26 94 -60 30 -73 -15 -167 -103
-216 -46 -26 -62 -29 -137 -29 -103 0 -172 28 -249 100 -104 97 -153 213 -154
360 0 175 57 309 188 440 92 92 159 135 282 179 85 30 94 31 248 30 148 0 166
-2 245 -28 191 -63 340 -169 455 -321 235 -313 270 -735 91 -1100 -145 -296
-395 -512 -709 -613 -125 -41 -164 -49 -292 -62 -186 -19 -364 5 -603 81 -321
102 -601 122 -890 63 -301 -61 -598 -220 -812 -434 -122 -123 -200 -228 -275
-372 -50 -96 -125 -295 -125 -332 0 -9 -4 -16 -10 -16 -5 0 -10 6 -10 13 0 6
-7 55 -15 107 -52 340 -37 730 41 1079 95 423 264 788 533 1149 127 171 402
446 573 573 293 218 609 380 933 478 119 36 140 38 100 9z m1660 -19 c201 -60
479 -188 673 -310 375 -233 728 -586 961 -961 426 -681 551 -1501 354 -2302
-39 -160 -43 -162 -62 -40 -65 428 -393 795 -809 906 -99 26 -304 35 -408 18
-329 -53 -598 -277 -701 -585 -23 -70 -27 -96 -27 -215 -1 -115 3 -146 22
-210 77 -245 271 -415 500 -436 228 -21 435 135 435 330 0 112 -63 191 -152
191 -39 0 -47 -5 -81 -43 -29 -34 -45 -45 -76 -49 -72 -9 -146 64 -159 156
-11 80 18 161 83 233 166 183 482 168 682 -32 76 -77 121 -149 157 -252 38
-106 44 -280 14 -398 -119 -471 -617 -741 -1125 -610 -97 25 -264 103 -342
161 -244 178 -402 435 -459 744 -27 144 -17 375 23 528 70 268 213 488 461
708 281 249 462 560 543 929 19 91 23 134 23 315 0 236 -14 324 -81 518 -92
264 -262 503 -484 680 -41 33 -66 57 -55 54 11 -4 52 -16 90 -28z m-1975
-2762 c349 -92 650 -338 813 -663 52 -103 101 -251 131 -397 51 -244 131 -437
260 -632 190 -285 480 -511 800 -624 164 -58 320 -84 501 -84 172 0 277 14
425 57 47 13 94 28 105 32 59 23 -229 -197 -387 -295 -879 -549 -2000 -594
-2926 -119 -220 113 -475 289 -632 436 l-75 71 50 -15 c28 -8 93 -21 145 -29
517 -79 1020 208 1182 675 54 156 65 351 28 507 -41 172 -148 345 -278 449
-72 57 -197 119 -282 138 -83 20 -217 20 -299 1 -325 -77 -509 -422 -356 -665
79 -125 236 -166 319 -83 37 36 42 66 21 127 -16 46 -16 56 -4 81 48 100 205
100 302 0 179 -185 86 -524 -181 -659 -355 -179 -797 15 -953 418 -211 547
149 1149 771 1287 128 28 388 22 520 -14z"/>
</g>
</svg>
