<?xml version="1.0" encoding="UTF-8" standalone="no"?>
<svg
   xmlns:dc="http://purl.org/dc/elements/1.1/"
   xmlns:cc="http://creativecommons.org/ns#"
   xmlns:rdf="http://www.w3.org/1999/02/22-rdf-syntax-ns#"
   xmlns:svg="http://www.w3.org/2000/svg"
   xmlns="http://www.w3.org/2000/svg"
   xmlns:sodipodi="http://sodipodi.sourceforge.net/DTD/sodipodi-0.dtd"
   xmlns:inkscape="http://www.inkscape.org/namespaces/inkscape"
   id="svg4206"
   version="1.1"
   inkscape:version="1.0.2 (394de47547, 2021-03-26)"
   width="506.25"
   height="506.25"
   viewBox="0 0 506.25 506.25"
   sodipodi:docname="triskel eye.svg">
  <metadata
     id="metadata4212">
    <rdf:RDF>
      <cc:Work
         rdf:about="">
        <dc:format>image/svg+xml</dc:format>
        <dc:type
           rdf:resource="http://purl.org/dc/dcmitype/StillImage" />
        <dc:title></dc:title>
      </cc:Work>
    </rdf:RDF>
  </metadata>
  <defs
     id="defs4210" />
  <sodipodi:namedview
     pagecolor="#ffffff"
     bordercolor="#666666"
     borderopacity="1"
     objecttolerance="10"
     gridtolerance="10"
     guidetolerance="10"
     inkscape:pageopacity="0"
     inkscape:pageshadow="2"
     inkscape:window-width="1848"
     inkscape:window-height="1016"
     id="namedview4208"
     showgrid="false"
     inkscape:zoom="0.90765436"
     inkscape:cx="184.87773"
     inkscape:cy="313.15696"
     inkscape:window-x="1992"
     inkscape:window-y="27"
     inkscape:window-maximized="1"
     inkscape:current-layer="svg4206"
     inkscape:document-rotation="0">
    <sodipodi:guide
       position="0,0"
       orientation="0,506.25"
       id="guide4537"
       inkscape:locked="false" />
    <sodipodi:guide
       position="506.25,0"
       orientation="-506.25,0"
       id="guide4539"
       inkscape:locked="false" />
    <sodipodi:guide
       position="506.25,506.25"
       orientation="0,-506.25"
       id="guide4541"
       inkscape:locked="false" />
    <sodipodi:guide
       position="0,506.25"
       orientation="506.25,0"
       id="guide4543"
       inkscape:locked="false" />
  </sodipodi:namedview>
  <rect
     style="color:#000000;clip-rule:nonzero;display:inline;overflow:visible;visibility:visible;opacity:1;isolation:auto;mix-blend-mode:normal;color-interpolation:sRGB;color-interpolation-filters:linearRGB;solid-color:#000000;solid-opacity:1;fill:#1c1e1f;fill-opacity:1;fill-rule:nonzero;stroke:none;stroke-width:3.54330707px;stroke-linecap:butt;stroke-linejoin:miter;stroke-miterlimit:4;stroke-dasharray:none;stroke-dashoffset:0;stroke-opacity:1;marker:none;color-rendering:auto;image-rendering:auto;shape-rendering:auto;text-rendering:auto;enable-background:accumulate"
     id="rect4545"
     width="506.25"
     height="506.25"
     x="0"
     y="0" />
  <path
     style="fill:#c8ab37;fill-opacity:1"
     d="m 213.16513,132.50327 c -26.20937,-0.2735 -54.18935,3.39518 -84.02961,11.00446 -16.24727,4.14308 -43.486436,13.37468 -53.84624,18.2468 l -6.934912,3.26089 0.619914,3.59738 c 1.125118,6.50225 16.512258,48.41035 21.806693,59.39417 26.999525,56.01301 56.997305,92.2041 97.957625,118.18142 5.51284,3.49628 34.58006,16.04942 41.76983,18.03973 31.98786,8.85498 66.07405,10.59234 102.90316,5.24122 16.44048,-2.38872 26.33519,-4.16541 35.19712,-6.31494 24.05542,-5.83485 64.67254,-20.22761 66.21438,-23.4647 1.66761,-3.50113 -12.07066,-42.2969 -23.02624,-65.02433 -7.40803,-15.36802 -6.05801,-12.75557 -12.69655,-24.5755 -26.07202,-46.42133 -62.40635,-82.37783 -100.61875,-100.04997 -3.953,-1.82816 -7.92757,-3.46083 -11.91149,-4.889 -22.75713,-8.15802 -47.19556,-12.37412 -73.40493,-12.64763 z m -5.36287,17.20768 c 0.63586,0.008 1.02504,0.0287 1.1012,0.065 0.30464,0.14511 -3.49473,2.42007 -8.44332,5.05692 -14.67384,7.81888 -28.447,19.78545 -38.41162,33.37306 -4.94166,6.73839 -14.65382,27.08299 -16.84018,35.27468 -4.02686,15.08757 -4.63154,35.30292 -1.51195,50.56048 1.12261,5.49058 1.87262,10.04403 1.66636,10.11719 -0.20627,0.0732 -2.63304,-2.9656 -5.39087,-6.75382 -2.75782,-3.78821 -6.37696,-8.7806 -8.04562,-11.09339 -12.31209,-17.06474 -30.16078,-53.45518 -39.833623,-81.21908 l -3.712107,-10.65827 17.1299,-5.88581 c 29.65877,-10.19384 65.62332,-17.48307 91.62213,-18.56827 4.62661,-0.19309 8.76213,-0.29193 10.6697,-0.26865 z m 41.46917,9.87966 c 14.58646,-0.38356 29.05691,2.68736 42.23033,8.96213 15.46092,7.40936 28.55974,18.96786 37.83566,33.38646 -0.18773,-0.08 -0.37549,-0.1753 -0.56301,-0.2513 -6.50711,-2.63943 -14.91346,-3.76497 -21.85961,-2.73532 -6.4131,0.96658 -13.69602,4.07239 -18.73701,8.20275 -4.62877,3.74897 -8.92269,9.61967 -10.95724,15.26527 -1.88289,5.17033 -2.51549,11.77455 -1.46031,17.17937 0.91012,4.88147 3.55228,10.34763 6.89783,14.0263 3.01487,3.34362 7.56379,6.29633 11.87259,7.57436 3.79255,1.13123 8.63054,1.26678 12.45786,0.23191 3.38112,-0.94048 7.03586,-3.0777 9.38836,-5.68429 1.98614,-2.18904 3.63725,-5.46233 4.12261,-8.38851 0.41084,-2.50159 0.0459,-5.5766 -1.05069,-7.81673 -0.88403,-1.84948 -2.56052,-3.72845 -4.37744,-4.67763 -1.41879,-0.74683 -3.41342,-1.09285 -4.98825,-0.69866 -1.17452,0.26368 -2.56433,1.1764 -3.09911,2.27906 -0.47703,0.88796 -0.52291,2.26561 -0.006,3.11915 -0.006,0.001 -2.2304,0.47022 -3.11719,-0.006 -1.10752,-0.57576 -2.01542,-1.92266 -2.27908,-3.09716 -0.39421,-1.57483 -0.0481,-3.57141 0.69867,-4.9902 0.94918,-1.81691 2.82448,-3.53443 4.67397,-4.41847 2.24497,-1.05554 5.32077,-1.42049 7.82235,-1.00965 2.92133,0.44433 6.1975,2.13646 8.38655,4.1226 2.60657,2.35252 4.74302,6.00719 5.67867,9.34732 1.0397,3.86831 0.90688,8.70638 -0.22433,12.49891 -1.27802,4.30883 -4.23273,8.85967 -7.57634,11.87453 -3.67867,3.34554 -9.15162,5.9467 -14.02824,6.89782 -5.40481,1.05518 -12.00711,0.42261 -17.17742,-1.46028 -2.77938,-1.00162 -5.79958,-2.64102 -8.20555,-4.35202 L 263.65073,252.17327 257.67456,208.685 c -0.98865,-6.95099 -4.24465,-14.79793 -8.59237,-20.27053 -4.0532,-5.0917 -10.3925,-9.82877 -16.44593,-12.14767 -5.6143,-2.12141 -12.81548,-2.89121 -18.72202,-1.85982 -5.41935,0.93217 -11.49178,3.72901 -15.63823,7.33778 -3.73423,3.22739 -7.17179,8.25011 -8.68832,13.00291 -1.36973,4.23651 -1.68273,9.67636 -0.62581,14.04155 0.91671,3.88286 3.24995,8.1397 6.0739,10.92383 2.45228,2.45391 6.15239,4.55298 9.56355,5.27198 2.90458,0.65419 6.58214,0.46747 9.36498,-0.61013 2.34637,-0.90123 4.83159,-2.73356 6.24855,-4.8137 1.13259,-1.67231 1.92734,-4.09372 1.85365,-6.12223 -0.0661,-1.61365 -0.75074,-3.52817 -1.88517,-4.68282 -0.85446,-0.89675 -2.31371,-1.63871 -3.55349,-1.57518 -0.99376,0.0344 -2.20102,0.7177 -2.68288,1.56464 0,0 1.53388,1.73018 1.56831,2.72392 0.0586,1.19878 -0.6821,2.65799 -1.57884,3.51246 -1.15466,1.13443 -3.06917,1.81899 -4.68282,1.88517 -2.02366,0.11469 -4.45188,-0.72108 -6.12418,-1.85367 -2.08015,-1.41696 -3.91246,-3.90214 -4.81371,-6.24853 -1.03658,-2.78769 -1.25752,-6.41941 -0.60818,-9.36498 0.72386,-3.37016 2.82095,-7.07029 5.27002,-9.56356 2.82512,-2.82881 7.08683,-5.12107 10.92385,-6.0739 4.37003,-1.01593 9.80698,-0.74391 14.04349,0.62582 4.75764,1.55753 9.77434,4.95609 13.00657,8.73131 3.60876,4.14645 6.40194,10.17587 7.33412,15.59525 0.50841,2.89174 0.62246,6.32875 0.34699,9.27168 l -2.09546,21.99415 -34.64785,26.92392 c -5.56433,4.27544 -10.71104,11.03664 -13.3046,17.57991 -2.36477,6.01727 -3.30795,13.86321 -2.25935,20.26662 0.94937,5.91623 3.90128,12.59173 7.7274,17.16979 3.53647,4.23815 8.97626,8.04438 14.13688,9.84526 4.72635,1.64438 10.7659,2.09389 15.63282,1.06077 4.37974,-0.93391 9.24089,-3.42104 12.49278,-6.50822 2.88069,-2.71064 5.38744,-6.83271 6.42696,-10.69755 0.85171,-3.34369 0.8432,-7.625 -0.21057,-10.90959 -0.9233,-2.88425 -2.90465,-5.93468 -5.24802,-7.81941 -1.93068,-1.55936 -4.78083,-2.80282 -7.25818,-3.00866 -2.05277,-0.13131 -4.53007,0.37091 -6.26846,1.49126 -1.35748,0.82582 -2.66829,2.39425 -3.1087,3.9431 -0.36105,1.16527 -0.24871,2.81392 0.41528,3.85792 0.5529,0.80769 1.72101,1.54427 2.71963,1.55084 0,0 0.7002,-2.16189 1.54889,-2.71963 1.04401,-0.664 2.65362,-0.77148 3.85988,-0.41527 1.54885,0.4404 3.07628,1.75609 3.94309,3.1087 1.12034,1.73839 1.62066,4.21565 1.48931,6.26844 -0.20581,2.47734 -1.44734,5.32751 -3.0067,7.25819 -1.88472,2.34337 -4.97615,4.32958 -7.81941,5.24802 -3.28457,1.0538 -7.56666,1.06032 -10.91521,0.16759 -3.85999,-0.9985 -7.98211,-3.50254 -10.7386,-6.41937 -3.0413,-3.21576 -5.52764,-8.07762 -6.46155,-12.45735 -1.03314,-4.86693 -0.58365,-10.90768 1.01973,-15.62916 1.80089,-5.16063 5.6462,-10.60411 9.88434,-14.14056 2.27096,-1.89013 5.1715,-3.73076 7.85294,-4.96266 l 20.08039,-9.15207 40.66506,16.55872 c 6.46611,2.64426 14.9098,3.72395 21.85594,2.69429 6.41798,-0.92559 13.6538,-4.0687 18.69965,-8.15805 4.66491,-3.79482 8.96084,-9.66432 11.00023,-15.26892 1.8829,-5.17032 2.51062,-11.81364 1.4603,-17.17743 -0.95598,-4.91761 -3.55306,-10.34962 -6.90346,-14.06929 -3.01002,-3.30261 -7.56297,-6.29825 -11.86694,-7.53527 -3.79254,-1.13122 -8.63257,-1.26406 -12.50087,-0.22435 -3.34014,0.93565 -6.99363,3.07206 -9.35099,5.63763 -1.9813,2.23006 -3.67944,5.46526 -4.11893,8.42759 -0.41569,2.4606 -0.0507,5.53637 1.00965,7.82235 0.87918,1.80849 2.6035,3.72479 4.42041,4.67397 1.4188,0.74683 3.41341,1.09287 4.98826,0.69868 1.1745,-0.2637 2.52139,-1.17156 3.09717,-2.27908 0.47701,-0.88796 0.4819,-2.2588 0.006,-3.1172 0.006,-0.001 2.2304,-0.4721 3.11721,0.004 1.10268,0.53477 2.01538,1.92264 2.27908,3.09717 0.39419,1.57482 0.0481,3.57142 -0.69868,4.99019 -0.94918,1.81693 -2.86916,3.49828 -4.67764,4.37743 -2.28113,1.10139 -5.35612,1.46638 -7.81673,1.0507 -2.96718,-0.48049 -6.19948,-2.13569 -8.42955,-4.11698 -2.56557,-2.35736 -4.70276,-6.01286 -5.64325,-9.39399 -1.03486,-3.82731 -0.89928,-8.66728 0.23193,-12.45982 1.23701,-4.30397 4.23267,-8.8569 7.53528,-11.86694 3.71966,-3.35038 9.14486,-5.98851 14.06733,-6.90347 5.36379,-1.05031 12.00709,-0.42259 17.17743,1.4603 29.10804,12.53172 19.84762,62.97614 11.13667,82.0987 -15.20659,31.86658 -47.2206,52.30363 -82.52747,52.68373 1.02707,-0.65247 2.02583,-1.32399 2.94537,-2.03775 5.55946,-4.31641 10.70425,-11.07961 13.30266,-17.58188 2.35992,-6.05827 3.30716,-13.8613 2.25372,-20.30571 -0.94938,-5.91623 -3.89642,-12.55268 -7.72739,-17.17175 -3.53161,-4.19714 -8.97628,-8.04439 -14.13689,-9.84526 -4.7215,-1.6034 -10.76027,-2.05284 -15.62719,-1.01972 -4.37974,0.93392 -9.24652,3.38196 -12.49842,6.46914 -2.87582,2.75165 -5.38181,6.8718 -6.42132,10.73663 -0.85169,3.34371 -0.85002,7.58595 0.20862,10.91153 0.91844,2.84326 2.90662,5.93277 5.24998,7.81748 1.93068,1.55937 4.78006,2.80277 7.25256,2.9676 2.05763,0.17235 4.53373,-0.32793 6.27212,-1.44826 1.35262,-0.86682 2.67027,-2.3962 3.11067,-3.94504 0.35623,-1.20627 0.2487,-2.81393 -0.41529,-3.85792 -0.55774,-0.84871 -1.72103,-1.54232 -2.71964,-1.54891 0,0 -0.74121,2.16675 -1.5489,2.71965 -1.04885,0.62299 -2.65843,0.72852 -3.85986,0.41332 -1.54885,-0.44041 -3.07996,-1.79713 -3.94677,-3.14974 -1.11549,-1.69739 -1.61698,-4.17268 -1.48564,-6.22546 0.20583,-2.47734 1.44929,-5.3275 3.00865,-7.25818 1.88472,-2.34336 4.97422,-4.33154 7.81747,-5.24998 3.28458,-1.0538 7.56104,-1.10136 10.9096,-0.20868 3.85999,0.99852 7.98692,3.54551 10.73858,6.42134 3.04616,3.25674 5.53328,8.1167 6.46718,12.49644 1.03314,4.86691 0.58485,10.90763 -1.02339,15.58811 -1.79604,5.20164 -5.64253,10.64515 -9.88068,14.18161 -14.6189,11.17625 -24.00694,8.19785 -39.06812,1.20272 -46.14444,-21.97866 -65.73503,-77.20307 -43.75705,-123.34783 0.64863,-1.27271 1.32663,-2.53024 2.03347,-3.77156 0.011,0.0874 0.0161,0.17885 0.0277,0.2658 0.98865,6.95097 4.24542,14.79797 8.59799,20.31158 4.0532,5.09169 10.34586,9.79451 16.4403,12.10856 5.6143,2.12142 12.81549,2.89121 18.72202,1.85982 5.41935,-0.93216 11.44956,-3.7253 15.60086,-7.29307 3.77038,-3.27324 7.20994,-8.29477 8.73132,-13.00657 1.36488,-4.2775 1.6771,-9.71935 0.62019,-14.08455 -0.91184,-3.84184 -3.24432,-8.09867 -6.06828,-10.88279 -2.45226,-2.45391 -6.15122,-4.55104 -9.56723,-5.31105 -2.89973,-0.61318 -6.57845,-0.42838 -9.36131,0.64922 -2.34637,0.90123 -4.83235,2.73351 -6.25415,4.77264 -1.12776,1.71333 -1.92657,4.09572 -1.84804,6.16524 0.0614,1.57264 0.74876,3.52814 1.88321,4.6828 0.84961,0.85574 2.31004,1.59767 3.54981,1.53415 0.99376,-0.0344 2.20298,-0.71768 2.68485,-1.56465 0,0 -1.53023,-1.69108 -1.56464,-2.68483 -0.0634,-1.23977 0.67844,-2.69902 1.57518,-3.55349 1.1595,-1.09341 3.06912,-1.8182 4.64176,-1.87954 2.06953,-0.0786 4.49097,0.71544 6.16329,1.84804 2.03914,1.4218 3.91246,3.90411 4.81368,6.25048 1.03661,2.7877 1.26434,6.46042 0.61014,9.36499 -0.76003,3.41601 -2.85907,7.11416 -5.27197,9.56159 -2.82512,2.82879 -7.08198,5.16205 -10.92383,6.0739 -4.36519,1.05691 -9.80701,0.7439 -14.04351,-0.62582 -4.7528,-1.51652 -9.76871,-4.91308 -13.00095,-8.68831 -3.60877,-4.14644 -6.40678,-10.21884 -7.33411,-15.59719 -3.40491,-32.06899 48.91352,-48.30427 69.66164,-49.22456 z m 109.53483,61.74715 c 0.0294,-0.0107 0.0732,0.002 0.13065,0.0359 1.78339,1.02526 16.74954,22.42002 22.32973,31.99829 11.76396,20.19254 22.76965,44.12519 30.30839,65.90614 1.86279,5.38195 3.1765,10.22727 2.91849,10.76894 -1.10081,2.31114 -38.58139,13.94003 -60.28256,18.70387 -17.01821,3.73583 -48.84976,7.34431 -58.1307,6.5891 -2.71591,-0.22099 -2.6595,-0.2804 2.47049,-2.67136 39.11679,-18.2315 64.40009,-58.48961 63.63743,-101.32654 -0.11281,-6.33612 -1.04221,-15.63431 -2.06461,-20.66458 -1.02238,-5.03026 -1.61477,-9.23425 -1.31731,-9.33978 z m -107.32151,24.99163 c 2.40521,-0.0426 4.45156,1.74388 4.73409,4.13282 0.30368,2.56844 -1.53197,4.89687 -4.10035,5.20107 -2.56915,0.30484 -4.89884,-1.53112 -5.20302,-4.10035 -0.3048,-2.56983 1.53227,-4.89982 4.10229,-5.20302 0.15506,-0.0179 0.31092,-0.0281 0.46699,-0.0305 z"
     id="path4233"
     inkscape:connector-curvature="0"
     sodipodi:nodetypes="sscccsssssssssssccsssscsscccsccccccccccccccccccccccccccccccccccccccccccccccccccccccccccccccccccccccccccccccccccccccccccccccccccccccccccccccccccccccccccccccccccccccccccccccccccccccccccccccccccccccccccccccccsscsssssccccccccc" />
</svg>
